sceptre_example
…
thresholds_file <- paste0(directories,"/GDO.umi_thresholds.csv.gz")

# Read the thresholds file
umi_thresholds <- read_csv(thresholds_file)

── Column specification ────────────────────────────────────────────────────────
cols(
  Protospacer = col_character(),
  `UMI threshold` = col_double()
)

# View the thresholds
print(umi_thresholds)

# A tibble: 210 × 2
   Protospacer `UMI threshold`
   <chr>                 <dbl>
 1 CD46-1                    4
 2 CD46-2                    5
 3 CD52-1                    3
 4 CD52-2                    7
 5 CD55-1                    3
 6 CD55-10                   2
 7 CD55-2                    4
 8 CD55-3                    8
 9 CD55-4                    6
10 CD55-5                    2
# ℹ 200 more rows
…
